%YAML 1.1
%TAG !u! tag:unity3d.com,2011:
--- !u!114 &11400000
MonoBehaviour:
  m_ObjectHideFlags: 0
  m_CorrespondingSourceObject: {fileID: 0}
  m_PrefabInstance: {fileID: 0}
  m_PrefabAsset: {fileID: 0}
  m_GameObject: {fileID: 0}
  m_Enabled: 1
  m_EditorHideFlags: 0
  m_Script: {fileID: 11500000, guid: f9195561950bc844abe31342c3b65502, type: 3}
  m_Name: BasicMovement
  m_EditorClassIdentifier: 
  Speed: 7
  InitialDirection: {x: 0.85463595, y: 0.5192278}
