%YAML 1.1
%TAG !u! tag:unity3d.com,2011:
--- !u!114 &11400000
MonoBehaviour:
  m_ObjectHideFlags: 0
  m_CorrespondingSourceObject: {fileID: 0}
  m_PrefabInstance: {fileID: 0}
  m_PrefabAsset: {fileID: 0}
  m_GameObject: {fileID: 0}
  m_Enabled: 1
  m_EditorHideFlags: 0
  m_Script: {fileID: 11500000, guid: 6d6cb9b0b88d33a40b2b03f4567ef027, type: 3}
  m_Name: BasicFireAbilityHealth
  m_EditorClassIdentifier: 
  Health: 3
  Element: {fileID: 11400000, guid: 065340628f375ff499cbeb305e6f3887, type: 2}
