%YAML 1.1
%TAG !u! tag:unity3d.com,2011:
--- !u!114 &11400000
MonoBehaviour:
  m_ObjectHideFlags: 0
  m_CorrespondingSourceObject: {fileID: 0}
  m_PrefabInstance: {fileID: 0}
  m_PrefabAsset: {fileID: 0}
  m_GameObject: {fileID: 0}
  m_Enabled: 1
  m_EditorHideFlags: 0
  m_Script: {fileID: 11500000, guid: 1503c5a76d418b04d918948bab586333, type: 3}
  m_Name: PlayArea
  m_EditorClassIdentifier: 
  _Size: {x: 10.8, y: 20}
  _Position: {x: -5.4, y: 10}
