%YAML 1.1
%TAG !u! tag:unity3d.com,2011:
--- !u!114 &11400000
MonoBehaviour:
  m_ObjectHideFlags: 0
  m_CorrespondingSourceObject: {fileID: 0}
  m_PrefabInstance: {fileID: 0}
  m_PrefabAsset: {fileID: 0}
  m_GameObject: {fileID: 0}
  m_Enabled: 1
  m_EditorHideFlags: 0
  m_Script: {fileID: 11500000, guid: ddf30f126fbe04d4f9c45d4eeea08e1d, type: 3}
  m_Name: MULTISHOT
  m_EditorClassIdentifier: 
  TriggerPrefab: {fileID: 3481637792725361853, guid: 54a3b4ffb8914314ebeb3fce047c5444,
    type: 3}
  _AbilityLibrary: {fileID: 11400000, guid: 4a5f28603a9c0a942bbee8af467bba41, type: 2}
